A look at a cloud-resident data service: HSDS (HDF Scalable Data Service) • remlarge
…
More on metadata

To obtain the metadata on a study in this compendium, we can use the OmicIDX API. The following function retrieves available information, given an SRA study accession number:

meta_by_study = function(study_accession,
   urlbase = "https://api.omicidx.cancerdatasci.org/sra/studies/") {
 md = jsonlite::fromJSON(txt=
   url(paste0(urlbase, study_accession, "/runs?size=500")), flatten=TRUE)
 ans = tibble::as_tibble(md$hits)
 attr(ans, "cursor") = md$cursor
 ans
}
m1 = meta_by_study("SRP012682")  # GTEx
m1
#> # A tibble: 500 x 75
#>    static_data_ava… avg_length sample_accession accession center_name insdc
#>    <chr>            <chr>      <chr>            <chr>     <chr>       <lgl>
#>  1 1                152        SRS524195        SRR10686… BI          TRUE 
#>  2 1                152        SRS524196        SRR10687… BI          TRUE 
#>  3 1                152        SRS524197        SRR10688… BI          TRUE 
#>  4 1                152        SRS524198        SRR10688… BI          TRUE 
#>  5 1                152        SRS524199        SRR10688… BI          TRUE 
#>  6 1                152        SRS524200        SRR10688… BI          TRUE 
#>  7 1                152        SRS524201        SRR10689… BI          TRUE 
#>  8 1                152        SRS524202        SRR10689… BI          TRUE 
#>  9 1                152        SRS524203        SRR10689… BI          TRUE 
#> 10 1                152        SRS524204        SRR10689… BI          TRUE 
#> # … with 490 more rows, and 69 more variables: run_center <chr>, alias <chr>,
#> #   total_bases <chr>, cluster_name <chr>, total_spots <chr>,
#> #   experiment_accession <chr>, received <chr>, published <chr>,
#> #   study_accession <chr>, size <chr>, load_done <lgl>, is_public <lgl>,
#> #   qualities <list>, attributes <list>, lastupdate <chr>, status <chr>,
#> #   study.pubmed_ids <list>, study.identifiers <list>, study.received <chr>,
#> #   study.abstract <chr>, study.accession <chr>, study.published <chr>,
#> #   study.title <chr>, study.center_name <chr>, study.study_type <chr>,
#> #   study.insdc <lgl>, study.alias <chr>, study.attributes <list>,
…
